<?xml version="1.0" standalone="no"?>
<!DOCTYPE svg PUBLIC "-//W3C//DTD SVG 1.1//EN" "http://www.w3.org/Graphics/SVG/1.1/DTD/svg11.dtd" >
<svg xmlns="http://www.w3.org/2000/svg" xmlns:xlink="http://www.w3.org/1999/xlink" version="1.1">
<metadata></metadata>
<defs>
<font id="roboto_condensedbold" horiz-adv-x="1036" >
<font-face units-per-em="2048" ascent="1536" descent="-512" />
<missing-glyph horiz-adv-x="472" />
<glyph horiz-adv-x="0" />
<glyph horiz-adv-x="0" />
<glyph unicode="&#xd;" horiz-adv-x="472" />
<glyph horiz-adv-x="0" />
<glyph unicode=" "  horiz-adv-x="472" />
<glyph unicode="&#x09;" horiz-adv-x="472" />
<glyph unicode="&#xa0;" horiz-adv-x="472" />
<glyph unicode="!" horiz-adv-x="533" d="M392 448h-235l-33 1008h301zM119 137q0 68 43 111.5t112 43.5q68 0 111 -43.5t43 -111.5q0 -67 -42.5 -110t-111.5 -43q-70 0 -112.5 43t-42.5 110z" />
<glyph unicode="&#x22;" horiz-adv-x="656" d="M265 1398l-39 -413h-164v551h203v-138zM592 1398l-40 -413h-163v551h203v-138z" />
<glyph unicode="#" horiz-adv-x="1080" d="M565 410h-134l-59 -410h-175l60 410h-183v173h208l42 283h-187v174h212l61 416h174l-61 -416h135l61 416h174l-61 -416h179v-174h-204l-42 -283h182v-173h-207l-60 -410h-175zM456 583h135l41 283h-134z" />
<glyph unicode="$" d="M657 384q0 83 -34 131t-112 90q-153 68 -226.5 130.5t-109.5 143t-36 191.5q0 166 92 274.5t243 128.5v214h151v-218q150 -29 233.5 -152t83.5 -312h-283q0 120 -34.5 179t-89.5 59q-53 0 -83 -46t-30 -128q0 -71 31 -118t118 -98q160 -76 230.5 -138.5t104.5 -141.5 t34 -187q0 -169 -89.5 -275t-247.5 -127v-199h-150v199q-173 25 -267 147.5t-94 326.5h283q0 -118 38 -181.5t114 -63.5q61 0 95.5 45.5t34.5 125.5z" />
<glyph unicode="%" horiz-adv-x="1308" d="M97 1176q0 133 73.5 217t198.5 84t199.5 -82.5t74.5 -222.5v-73q0 -135 -74 -217t-198 -82q-123 0 -198.5 82t-75.5 223v71zM281 1099q0 -60 25.5 -95.5t64.5 -35.5q40 0 63.5 37t23.5 97v74q0 58 -24 95.5t-65 37.5q-40 0 -64 -37.5t-24 -98.5v-74zM671 357 q0 135 75 217.5t198 82.5q124 0 199 -81.5t75 -223.5v-73q0 -134 -73 -216.5t-199 -82.5q-127 0 -201 83t-74 220v74zM856 279q0 -56 26.5 -94t63.5 -38q83 0 87 119v91q0 59 -24.5 95.5t-64.5 36.5q-88 0 -88 -153v-57zM422 109l-134 76l597 1138l135 -76z" />
<glyph unicode="&#x26;" horiz-adv-x="1186" d="M72 392q0 103 46.5 186.5t174.5 188.5q-55 87 -87 164.5t-32 160.5q0 171 95 277.5t254 106.5q143 0 235.5 -98.5t92.5 -241.5q0 -190 -159 -317l-80 -65l187 -261q35 103 35 222h239q0 -281 -110 -452l188 -263h-321l-54 76q-129 -96 -298 -96q-184 0 -295 113t-111 299 zM493 214q79 0 149 52l-230 325l-6 -5q-50 -77 -50 -177q0 -84 39.5 -139.5t97.5 -55.5zM426 1097q0 -71 68 -174l47 36q42 32 60 66.5t18 92.5q0 52 -28.5 87.5t-68.5 35.5q-44 0 -70 -39.5t-26 -104.5z" />
<glyph unicode="'" horiz-adv-x="330" d="M275 1388l-29 -405h-184v553h213v-148z" />
<glyph unicode="(" horiz-adv-x="662" d="M120 592q0 224 52.5 430t157 368.5t223.5 224.5l53 -156q-113 -106 -179 -325.5t-69 -507.5v-60q0 -300 65.5 -527.5t182.5 -339.5l-53 -154q-118 62 -221.5 221t-156.5 362t-55 423v41z" />
<glyph unicode=")" horiz-adv-x="662" d="M556 568q0 -233 -59.5 -441t-165 -365t-223.5 -217l-52 154q114 109 180 333.5t68 508.5v53q0 291 -65.5 520.5t-182.5 346.5l52 154q77 -39 157.5 -130t145.5 -225t105 -301.5t40 -390.5z" />
<glyph unicode="*" horiz-adv-x="930" d="M342 962l-315 89l60 182l310 -126l-19 349h196l-20 -356l304 123l59 -183l-320 -90l210 -265l-160 -113l-182 291l-181 -282l-159 109z" />
<glyph unicode="+" horiz-adv-x="973" d="M620 816h283v-263h-283v-407h-268v407h-288v263h288v390h268v-390z" />
<glyph unicode="," horiz-adv-x="503" d="M187 -367l-151 79l38 71q64 118 66 238v225h246l-1 -201q-1 -106 -54 -220t-144 -192z" />
<glyph unicode="-" horiz-adv-x="744" d="M612 506h-489v236h489v-236z" />
<glyph unicode="." horiz-adv-x="596" d="M126 144q0 68 45.5 112t118.5 44q71 0 118 -43.5t47 -112.5q0 -70 -47.5 -112.5t-117.5 -42.5q-71 0 -117.5 43t-46.5 112z" />
<glyph unicode="/" horiz-adv-x="678" d="M206 -125h-207l437 1581h207z" />
<glyph unicode="0" d="M941 602q0 -302 -109.5 -462t-312.5 -160q-201 0 -310.5 155.5t-113.5 445.5v275q0 301 109 460.5t313 159.5t313 -158t111 -451v-265zM657 897q0 172 -34 258t-106 86q-135 0 -140 -315v-363q0 -176 34.5 -262t107.5 -86q69 0 102.5 80.5t35.5 246.5v355z" />
<glyph unicode="1" d="M718 0h-284v1112l-277 -107v236l531 217h30v-1458z" />
<glyph unicode="2" d="M953 0h-858v200l394 501q75 104 110.5 182.5t35.5 150.5q0 97 -33.5 152t-96.5 55q-69 0 -109.5 -64t-40.5 -180h-284q0 134 55.5 245t156 172.5t227.5 61.5q195 0 302.5 -107.5t107.5 -305.5q0 -123 -59.5 -249.5t-215.5 -311.5l-187 -267h495v-235z" />
<glyph unicode="3" d="M347 857h137q78 0 114.5 54.5t36.5 145.5q0 87 -37.5 135.5t-100.5 48.5q-59 0 -96.5 -46t-37.5 -116h-283q0 114 52.5 204.5t147 141.5t209.5 51q201 0 315 -111t114 -304q0 -99 -51.5 -183.5t-135.5 -129.5q103 -44 153.5 -132t50.5 -208q0 -194 -123.5 -311 t-324.5 -117q-187 0 -303.5 115.5t-116.5 303.5h283q0 -78 41 -131t104 -53q73 0 115.5 54t42.5 144q0 215 -167 216h-139v228z" />
<glyph unicode="4" d="M841 550h124v-235h-124v-315h-283v315h-482l-13 183l494 958h284v-906zM338 550h220v487l-6 -11z" />
<glyph unicode="5" d="M124 716l72 740h705v-242h-473l-26 -312q82 55 169 55q180 0 277.5 -128t97.5 -362q0 -219 -116 -353t-310 -134q-115 0 -213 54.5t-154.5 151.5t-57.5 220h280q7 -91 45 -141t98 -50q70 0 108 67.5t38 201.5q0 126 -45.5 190t-127.5 64q-80 0 -124 -55l-18 -25z" />
<glyph unicode="6" d="M770 1471v-240h-16q-159 -1 -252.5 -95.5t-113.5 -264.5q91 104 228 104q158 0 252.5 -135t94.5 -360q0 -143 -54 -258t-151.5 -178.5t-220.5 -63.5q-198 0 -317.5 159t-119.5 428v105q0 241 75.5 422t218 278.5t332.5 98.5h44zM527 741q-54 0 -90.5 -34t-54.5 -84v-102 q0 -154 41 -230t108 -76q68 0 109 73.5t41 188.5q0 117 -42.5 190.5t-111.5 73.5z" />
<glyph unicode="7" d="M949 1293l-460 -1293h-299l462 1221h-584v235h881v-163z" />
<glyph unicode="8" d="M911 1069q0 -106 -45 -188t-124 -131q90 -51 142 -140.5t52 -210.5q0 -194 -112 -306.5t-305 -112.5t-307 112.5t-114 306.5q0 121 52 211t143 140q-80 49 -125 131t-45 188q0 191 107 299t287 108q182 0 288 -109t106 -298zM519 215q64 0 98.5 54.5t34.5 151.5t-36 152 t-99 55t-99.5 -55t-36.5 -152t36.5 -151.5t101.5 -54.5zM629 1054q0 85 -27.5 136t-84.5 51q-54 0 -82 -49.5t-28 -137.5q0 -86 28 -138.5t84 -52.5t83 52.5t27 138.5z" />
<glyph unicode="9" d="M644 563q-90 -92 -197 -92q-166 0 -261.5 133.5t-95.5 356.5q0 144 54 263.5t150.5 185.5t215.5 66q123 0 219 -73t149 -209.5t53 -310.5v-103q0 -372 -163.5 -581.5t-463.5 -213.5h-29v244h19q166 1 249.5 86t100.5 248zM519 693q82 0 129 112v130q0 143 -39 224.5 t-101 81.5q-61 0 -98.5 -80.5t-37.5 -196.5q0 -126 39 -198.5t108 -72.5z" />
<glyph unicode=":" horiz-adv-x="562" d="M128 144q0 68 45.5 112t118.5 44q71 0 118 -43.5t47 -112.5q0 -70 -47.5 -112.5t-117.5 -42.5q-71 0 -117.5 43t-46.5 112zM128 962q0 68 45.5 112t118.5 44q71 0 118 -43.5t47 -112.5q0 -70 -47.5 -112.5t-117.5 -42.5q-71 0 -117.5 43t-46.5 112z" />
<glyph unicode=";" horiz-adv-x="522" d="M112 962q0 68 45.5 112t118.5 44q71 0 118 -43.5t47 -112.5q0 -70 -47.5 -112.5t-117.5 -42.5q-71 0 -117.5 43t-46.5 112zM211 -367l-151 79l38 71q64 118 66 238v225h246l-1 -201q-1 -106 -54 -220t-144 -192z" />
<glyph unicode="&#x3c;" horiz-adv-x="915" d="M336 617l453 -199v-282l-728 364v238l728 365v-282z" />
<glyph unicode="=" horiz-adv-x="1030" d="M895 744h-763v238h763v-238zM895 311h-763v237h763v-237z" />
<glyph unicode="&#x3e;" horiz-adv-x="930" d="M583 621l-462 201v280l738 -364v-238l-738 -365v280z" />
<glyph unicode="?" horiz-adv-x="918" d="M304 448q0 140 27.5 222.5t98.5 157.5q75 83 100 136t25 107q0 167 -108 167q-48 0 -80 -46t-34 -124h-283q2 194 108.5 301t288.5 107q186 0 289 -103.5t103 -289.5q0 -154 -127 -302l-83 -94q-41 -49 -58 -101.5t-19 -137.5h-248zM278 142q0 68 43.5 111t110.5 43 q69 0 112 -43.5t43 -110.5q0 -66 -42 -110t-113 -44q-70 0 -112 44t-42 110z" />
<glyph unicode="@" horiz-adv-x="1569" d="M1486 537q-5 -168 -54.5 -298.5t-132.5 -195t-192 -64.5q-143 0 -204 134q-83 -131 -209 -131t-194 124.5t-52 324.5q15 163 70.5 291t140.5 198t185 70q127 0 215 -68l53 -41l-44 -578q-7 -81 10.5 -121.5t64.5 -40.5q72 0 120 111t52 278q13 347 -115 534.5t-378 187.5 q-239 0 -387 -213t-161 -576q-14 -358 115.5 -549t381.5 -191q71 0 147 18.5t132 49.5l34 -155q-52 -40 -140 -64.5t-176 -24.5q-225 0 -382 106.5t-234 313t-68 496.5q9 276 105.5 495t261.5 338t375 119q209 0 362 -106.5t230 -307.5t68 -464zM663 431q-8 -133 18 -201 t83 -68q32 0 62 41t49 112l36 491q-26 7 -48 7q-88 0 -136.5 -91t-63.5 -291z" />
<glyph unicode="A" horiz-adv-x="1223" d="M812 298h-401l-78 -298h-311l455 1456h269l458 -1456h-314zM475 543h272l-136 519z" />
<glyph unicode="B" horiz-adv-x="1149" d="M117 0v1456h450q228 0 346.5 -101.5t118.5 -297.5q0 -111 -49 -191t-134 -117q98 -28 151 -112.5t53 -208.5q0 -212 -116.5 -320t-337.5 -108h-482zM411 633v-389h188q79 0 120 49t41 139q0 196 -142 201h-207zM411 847h153q173 0 173 179q0 99 -40 142t-130 43h-156 v-364z" />
<glyph unicode="C" horiz-adv-x="1168" d="M1104 485q-11 -249 -140 -377t-364 -128q-247 0 -378.5 162.5t-131.5 463.5v245q0 300 136 462.5t378 162.5q238 0 361.5 -133t140.5 -382h-295q-4 154 -47.5 212.5t-159.5 58.5q-118 0 -167 -82.5t-52 -271.5v-275q0 -217 48.5 -298t166.5 -81q116 0 160 56.5t50 204.5 h294z" />
<glyph unicode="D" horiz-adv-x="1157" d="M117 0v1456h385q255 0 406.5 -162t154.5 -444v-236q0 -287 -151.5 -450.5t-417.5 -163.5h-377zM411 1211v-967h88q147 0 207 77.5t63 267.5v253q0 204 -57 284.5t-194 84.5h-107z" />
<glyph unicode="E" horiz-adv-x="1005" d="M869 630h-458v-386h542v-244h-836v1456h834v-245h-540v-344h458v-237z" />
<glyph unicode="F" horiz-adv-x="974" d="M868 594h-457v-594h-294v1456h806v-245h-512v-373h457v-244z" />
<glyph unicode="G" horiz-adv-x="1198" d="M1107 165q-85 -92 -208.5 -138.5t-270.5 -46.5q-251 0 -390 155.5t-143 452.5v262q0 301 131.5 463.5t383.5 162.5q237 0 357.5 -117t139.5 -367h-286q-12 139 -58 189.5t-144 50.5q-119 0 -173 -87t-56 -277v-264q0 -199 59.5 -289.5t195.5 -90.5q87 0 141 35l26 18v267 h-206v222h501v-601z" />
<glyph unicode="H" horiz-adv-x="1257" d="M1138 0h-293v623h-434v-623h-294v1456h294v-589h434v589h293v-1456z" />
<glyph unicode="I" horiz-adv-x="554" d="M424 0h-294v1456h294v-1456z" />
<glyph unicode="J" horiz-adv-x="1004" d="M596 1456h294v-1008q0 -212 -118 -340t-304 -128q-200 0 -311 119t-111 331h295q0 -206 127 -206q128 0 128 238v994z" />
<glyph unicode="K" horiz-adv-x="1133" d="M527 562l-116 -146v-416h-294v1456h294v-635l93 157l271 478h360l-417 -640l424 -816h-349z" />
<glyph unicode="L" horiz-adv-x="980" d="M411 244h516v-244h-810v1456h294v-1212z" />
<glyph unicode="M" horiz-adv-x="1553" d="M501 1456l275 -1053l274 1053h384v-1456h-295v394l27 607l-291 -1001h-200l-291 1001l27 -607v-394h-294v1456h384z" />
<glyph unicode="N" horiz-adv-x="1254" d="M1135 0h-294l-430 955v-955h-294v1456h294l431 -956v956h293v-1456z" />
<glyph unicode="O" horiz-adv-x="1236" d="M1142 597q0 -293 -138.5 -455t-384.5 -162q-245 0 -385 160.5t-142 449.5v249q0 300 139 468.5t386 168.5q243 0 383 -165.5t142 -464.5v-249zM847 841q0 197 -56 293t-174 96q-117 0 -173 -92.5t-58 -281.5v-259q0 -191 57 -281.5t176 -90.5q115 0 171 88.5t57 274.5 v253z" />
<glyph unicode="P" horiz-adv-x="1165" d="M411 512v-512h-294v1456h496q216 0 344.5 -134t128.5 -348t-127 -338t-352 -124h-196zM411 757h202q84 0 130 55t46 160q0 109 -47 173.5t-126 65.5h-205v-454z" />
<glyph unicode="Q" horiz-adv-x="1236" d="M1141 615q0 -361 -195 -525l201 -180l-185 -170l-268 245l-77 -5q-247 0 -386.5 167.5t-140.5 463.5v228q0 300 139 468.5t386 168.5q241 0 381 -162t145 -455v-244zM846 841q0 199 -57 294t-174 95t-173 -92.5t-58 -281.5v-241q0 -200 57.5 -295t175.5 -95 q115 0 171.5 94.5t57.5 288.5v233z" />
<glyph unicode="R" horiz-adv-x="1134" d="M558 532h-146v-532h-294v1456h469q221 0 341.5 -114.5t120.5 -325.5q0 -290 -211 -406l255 -596v-14h-316zM412 777h167q88 0 132 58.5t44 156.5q0 219 -171 219h-172v-434z" />
<glyph unicode="S" horiz-adv-x="1106" d="M732 382q0 89 -45.5 134.5t-165.5 94.5q-219 83 -315 194.5t-96 263.5q0 184 130.5 295.5t331.5 111.5q134 0 239 -56.5t161.5 -159.5t56.5 -234h-293q0 102 -43.5 155.5t-125.5 53.5q-77 0 -120 -45.5t-43 -122.5q0 -60 48 -108.5t170 -100.5q213 -77 309.5 -189 t96.5 -285q0 -190 -121 -297t-329 -107q-141 0 -257 58t-181.5 166t-65.5 255h295q0 -126 49 -183t160 -57q154 0 154 163z" />
<glyph unicode="T" horiz-adv-x="1112" d="M1060 1211h-360v-1211h-295v1211h-354v245h1009v-245z" />
<glyph unicode="U" horiz-adv-x="1170" d="M1064 1456v-1008q-2 -227 -125 -347.5t-353 -120.5q-234 0 -357.5 122t-123.5 353v1001h296v-1002q0 -124 40 -177t145 -53t144 52.5t40 172.5v1007h294z" />
<glyph unicode="V" horiz-adv-x="1184" d="M591 400l245 1056h328l-420 -1456h-306l-417 1456h326z" />
<glyph unicode="W" horiz-adv-x="1534" d="M1063 541l138 915h291l-259 -1456h-295l-170 858l-168 -858h-296l-260 1456h293l137 -914l171 914h247z" />
<glyph unicode="X" horiz-adv-x="1146" d="M573 956l196 500h337l-342 -722l350 -734h-341l-200 509l-199 -509h-341l350 734l-343 722h337z" />
<glyph unicode="Y" horiz-adv-x="1111" d="M556 802l219 654h320l-390 -928v-528h-298v528l-391 928h320z" />
<glyph unicode="Z" horiz-adv-x="1086" d="M422 244h600v-244h-944v177l594 1034h-600v245h939v-173z" />
<glyph unicode="[" horiz-adv-x="540" d="M499 1471h-105v-1587h105v-223h-389v2034h389v-224z" />
<glyph unicode="\" horiz-adv-x="781" d="M10 1456h289l510 -1581h-289z" />
<glyph unicode="]" horiz-adv-x="540" d="M34 1695h389v-2034h-389v223h106v1587h-106v224z" />
<glyph unicode="^" horiz-adv-x="800" d="M402 1184l-131 -455h-222l252 727h203l251 -727h-221z" />
<glyph unicode="_" horiz-adv-x="819" d="M796 -228h-775v228h775v-228z" />
<glyph unicode="`" horiz-adv-x="678" d="M567 1226h-239l-276 310h317z" />
<glyph unicode="a" horiz-adv-x="964" d="M617 0q-12 25 -24 84q-76 -104 -206 -104q-136 0 -225.5 90t-89.5 233q0 170 108.5 263t312.5 95h86v87q0 73 -25 103t-73 30q-106 0 -106 -124h-283q0 150 112.5 247.5t284.5 97.5q178 0 275.5 -92.5t97.5 -264.5v-509q2 -140 40 -219v-17h-285zM450 202q47 0 80 19 t49 45v225h-68q-72 0 -113.5 -46t-41.5 -123q0 -120 94 -120z" />
<glyph unicode="b" horiz-adv-x="1014" d="M947 506q0 -263 -84 -394.5t-264 -131.5q-141 0 -226 127l-9 -107h-261v1536h283v-542q80 108 211 108q180 0 264 -130.5t86 -382.5v-83zM664 577q0 171 -33 229.5t-115 58.5q-89 0 -130 -81v-493q38 -76 132 -76q81 0 112.5 53t33.5 206v103z" />
<glyph unicode="c" horiz-adv-x="942" d="M494 215q123 0 125 160h266q-2 -177 -109 -286t-276 -109q-209 0 -319 130t-112 383v86q0 255 108.5 389t320.5 134q179 0 282 -110.5t105 -313.5h-266q-1 91 -30 140t-96 49q-74 0 -106 -52.5t-34 -203.5v-110q0 -132 13 -184.5t43 -77t85 -24.5z" />
<glyph unicode="d" horiz-adv-x="1015" d="M65 574q0 266 90 397t262 131q125 0 208 -108v542h285v-1536h-257l-13 110q-87 -130 -224 -130q-170 0 -259.5 130t-91.5 382v82zM349 503q0 -160 34 -223.5t115 -63.5q84 0 127 75v494q-42 80 -126 80q-78 0 -114 -63t-36 -224v-75z" />
<glyph unicode="e" horiz-adv-x="980" d="M540 -20q-218 0 -340 130t-122 372v86q0 256 112 395t321 139q204 0 307 -130.5t105 -386.5v-139h-563q6 -120 53 -175.5t145 -55.5q142 0 237 97l111 -171q-52 -72 -151 -116.5t-215 -44.5zM362 644h283v26q-2 97 -32 147t-104 50t-107.5 -53t-39.5 -170z" />
<glyph unicode="f" horiz-adv-x="671" d="M168 0v869h-131v213h131v97q1 179 94.5 278.5t258.5 99.5q50 0 128 -20l-2 -226q-29 9 -69 9q-126 0 -126 -150v-88h169v-213h-169v-869h-284z" />
<glyph unicode="g" horiz-adv-x="1030" d="M69 574q0 266 96 397t269 131q147 0 227 -116l11 96h255v-1082q0 -207 -116 -316.5t-333 -109.5q-89 0 -187 35.5t-146 90.5l95 196q40 -42 104 -68.5t121 -26.5q95 0 136.5 45.5t42.5 146.5v93q-81 -106 -211 -106q-173 0 -267.5 134.5t-96.5 379.5v80zM352 503 q0 -150 39 -218.5t124 -68.5q87 0 129 63v517q-44 69 -127 69q-84 0 -124.5 -69t-40.5 -222v-71z" />
<glyph unicode="h" horiz-adv-x="1008" d="M379 987q92 115 226 115q148 0 225 -104t78 -310v-688h-284v685q0 95 -29.5 137.5t-95.5 42.5q-77 0 -120 -71v-794h-283v1536h283v-549z" />
<glyph unicode="i" horiz-adv-x="516" d="M400 0h-284v1082h284v-1082zM103 1362q0 66 42 108t112 42t112 -42t42 -108q0 -65 -41.5 -108t-112.5 -43t-112.5 43t-41.5 108z" />
<glyph unicode="j" horiz-adv-x="503" d="M401 1082v-1140q0 -185 -85 -282t-241 -97q-66 0 -128 17l-1 231q47 -9 75 -9q94 0 96 132v1148h284zM98 1362q0 66 42 108t112 42t112 -42t42 -108q0 -65 -41.5 -108t-112.5 -43t-112.5 43t-41.5 108z" />
<glyph unicode="k" horiz-adv-x="980" d="M462 417l-76 -85v-332h-283v1536h283v-830l35 52l196 324h337l-314 -446l344 -636h-324z" />
<glyph unicode="l" horiz-adv-x="516" d="M400 0h-284v1536h284v-1536z" />
<glyph unicode="m" horiz-adv-x="1519" d="M369 1082l8 -100q95 120 251 120q162 0 229 -146q93 146 265 146q284 0 291 -393v-709h-283v691q0 94 -26 134t-88 40q-79 0 -118 -97l2 -34v-734h-283v689q0 93 -25 134.5t-89 41.5q-73 0 -116 -79v-786h-283v1082h265z" />
<glyph unicode="n" horiz-adv-x="1008" d="M362 1082l8 -107q96 127 251 127q279 0 287 -391v-711h-284v690q0 92 -27.5 133.5t-96.5 41.5q-77 0 -120 -79v-786h-284v1082h266z" />
<glyph unicode="o" horiz-adv-x="1019" d="M70 576q0 246 116 386t321 140q207 0 323 -140t116 -388v-69q0 -247 -115 -386t-322 -139q-208 0 -323.5 139.5t-115.5 387.5v69zM354 505q0 -290 155 -290q143 0 154 242l1 119q0 148 -41 219.5t-116 71.5q-72 0 -112.5 -71.5t-40.5 -219.5v-71z" />
<glyph unicode="p" horiz-adv-x="1014" d="M946 507q0 -255 -87.5 -391t-260.5 -136q-132 0 -212 107v-503h-283v1498h262l10 -99q81 119 221 119q173 0 260.5 -126t89.5 -386v-83zM664 578q0 157 -34.5 222t-116.5 65q-87 0 -127 -73v-507q38 -70 129 -70q84 0 116.5 71t32.5 221v71z" />
<glyph unicode="q" horiz-adv-x="1018" d="M65 576q0 266 89 396t264 130q142 0 226 -128l18 108h247v-1498h-284v500q-79 -104 -208 -104q-171 0 -260.5 132.5t-91.5 381.5v82zM349 505q0 -157 34 -223.5t116 -66.5q86 0 126 67v515q-40 70 -125 70q-81 0 -115.5 -65t-35.5 -217v-80z" />
<glyph unicode="r" horiz-adv-x="679" d="M637 809l-94 8q-116 0 -157 -102v-715h-284v1082h267l8 -117q67 137 185 137q48 0 78 -13z" />
<glyph unicode="s" horiz-adv-x="930" d="M582 290q0 36 -34.5 66.5t-153.5 82.5q-175 71 -240.5 147t-65.5 189q0 142 102.5 234.5t271.5 92.5q178 0 285 -92t107 -247h-283q0 132 -110 132q-45 0 -74 -28t-29 -78q0 -36 32 -63.5t151 -78.5q173 -64 244.5 -142.5t71.5 -203.5q0 -145 -109 -233t-286 -88 q-119 0 -210 46.5t-142.5 129.5t-51.5 179h269q2 -74 34.5 -111t106.5 -37q114 0 114 103z" />
<glyph unicode="t" horiz-adv-x="629" d="M432 1348v-266h145v-213h-145v-537q0 -64 17.5 -88t67.5 -24q41 0 67 7l-2 -220q-72 -27 -156 -27q-274 0 -277 314v575h-125v213h125v266h283z" />
<glyph unicode="u" horiz-adv-x="1008" d="M635 99q-88 -119 -236 -119q-149 0 -226 102.5t-77 298.5v701h283v-708q2 -158 105 -158q97 0 140 84v782h285v-1082h-266z" />
<glyph unicode="v" horiz-adv-x="920" d="M458 400l137 682h295l-297 -1082h-270l-298 1082h296z" />
<glyph unicode="w" horiz-adv-x="1296" d="M891 475l97 607h271l-224 -1082h-235l-153 626l-153 -626h-236l-224 1082h272l96 -608l144 608h201z" />
<glyph unicode="x" horiz-adv-x="927" d="M465 761l126 321h300l-247 -529l256 -553h-301l-133 339l-132 -339h-302l256 553l-245 529h301z" />
<glyph unicode="y" horiz-adv-x="914" d="M450 471l144 611h302l-356 -1244q-80 -275 -301 -275q-51 0 -116 19v221l33 -1q66 0 99.5 25.5t50.5 88.5l22 73l-312 1093h304z" />
<glyph unicode="z" horiz-adv-x="927" d="M416 235h428v-235h-764v177l418 669h-408v236h748v-171z" />
<glyph unicode="{" horiz-adv-x="610" d="M502 -360q-302 98 -309 449v216q0 209 -137 209v208q137 0 137 212v218q8 347 309 445l54 -162q-100 -48 -109 -249l-1 -250q0 -225 -159 -317q159 -93 159 -321t2 -261q11 -188 107 -234z" />
<glyph unicode="|" horiz-adv-x="519" d="M349 -270h-176v1726h176v-1726z" />
<glyph unicode="}" horiz-adv-x="610" d="M54 -197q56 26 83 96.5t27 205.5v196q0 229 163 317q-163 89 -163 318t-1 250q-9 202 -110 249l54 162q154 -50 230.5 -162t78.5 -294v-208q0 -211 138 -211v-208q-138 0 -138 -211v-217q-8 -348 -309 -446z" />
<glyph unicode="~" horiz-adv-x="1141" d="M1041 794q0 -185 -81 -302t-209 -117q-60 0 -112 27.5t-120 104.5q-61 83 -116 83q-42 0 -68.5 -51.5t-26.5 -126.5l-209 3q0 185 80 299t209 114q66 0 121.5 -32.5t111.5 -98.5q58 -84 115 -84q41 0 70 52t29 129h206z" />
<glyph unicode="&#xa2;" horiz-adv-x="1042" d="M522 215q60 0 92 43t33 117h266q-2 -143 -81.5 -248t-209.5 -136v-236h-191v235q-159 34 -246 176.5t-87 365.5v22q0 218 87 361t246 177v226h191v-227q135 -30 212 -138.5t79 -274.5h-266q0 87 -33 138t-93 51q-112 0 -133 -171q-7 -56 -7 -170q0 -177 34.5 -244 t106.5 -67z" />
<glyph unicode="&#xa3;" horiz-adv-x="1074" d="M529 575l5 -137q-2 -123 -56 -194h534v-244h-906v244h74q49 15 54 125l1 52l-4 154h-127v237h121l-6 227q0 202 108 319t287 117q184 0 289.5 -112t105.5 -306h-279q0 84 -30.5 129t-85.5 45q-42 0 -71.5 -48t-29.5 -144l8 -227h250v-237h-242z" />
<glyph unicode="&#xa5;" horiz-adv-x="972" d="M487 959l156 497h305l-263 -714h169v-176h-224v-114h224v-175h-224v-277h-294v277h-243v175h243v114h-243v176h196l-264 714h307z" />
<glyph unicode="&#xa8;" horiz-adv-x="959" d="M94 1365q0 55 40.5 91.5t98.5 36.5t98.5 -36.5t40.5 -91.5q0 -54 -40.5 -90.5t-98.5 -36.5t-98.5 36.5t-40.5 90.5zM583 1365q0 54 40.5 90.5t98.5 36.5t98.5 -36.5t40.5 -90.5q0 -52 -38.5 -89.5t-100.5 -37.5t-100.5 37.5t-38.5 89.5z" />
<glyph unicode="&#xa9;" horiz-adv-x="1606" d="M1117 596q0 -152 -87.5 -233t-247.5 -81t-254.5 106.5t-94.5 286.5v113q0 174 95.5 280.5t253.5 106.5q163 0 249.5 -82.5t86.5 -231.5h-156q0 96 -46 137.5t-134 41.5q-92 0 -142.5 -67.5t-51.5 -180.5v-123q0 -117 51 -184.5t143 -67.5q89 0 134 40.5t45 138.5h156z M1383 729q0 166 -75 308.5t-212 228t-300 85.5q-159 0 -295.5 -82t-214.5 -226t-78 -314t77.5 -314t214 -227.5t296.5 -83.5t297.5 85t213.5 229t76 311zM86 729q0 202 93.5 375t259 272.5t357.5 99.5t357.5 -99.5t259 -272.5t93.5 -375q0 -204 -95 -377.5t-259.5 -272.5 t-355.5 -99q-193 0 -357.5 100t-258.5 273t-94 376z" />
<glyph unicode="&#xab;" horiz-adv-x="920" d="M289 523l192 -399h-175l-233 390v19l233 390h175zM630 523l192 -399h-175l-233 390v19l233 390h175z" />
<glyph unicode="&#xad;" horiz-adv-x="744" d="M612 506h-489v236h489v-236z" />
<glyph unicode="&#xae;" horiz-adv-x="1606" d="M86 729q0 202 93.5 375t259 272.5t357.5 99.5t357.5 -99.5t259 -272.5t93.5 -375q0 -204 -95 -377.5t-259.5 -272.5t-355.5 -99q-193 0 -357.5 100t-258.5 273t-94 376zM1383 729q0 166 -75 308.5t-212 228t-300 85.5q-159 0 -295.5 -82t-214.5 -226t-78 -314t77.5 -314 t214 -227.5t296.5 -83.5t297.5 85t213.5 229t76 311zM652 653v-337h-151v850h281q151 0 238 -68.5t87 -194.5q0 -112 -112 -174q60 -31 84.5 -86t24.5 -137.5t3.5 -116.5t13.5 -57v-16h-155q-13 34 -13 194q0 76 -33 109.5t-110 33.5h-158zM652 787h135q73 0 121.5 31.5 t48.5 84.5q0 70 -35.5 99.5t-128.5 30.5h-141v-246z" />
<glyph unicode="&#xb4;" horiz-adv-x="680" d="M297 1536h318l-278 -310h-236z" />
<glyph unicode="&#xb8;" horiz-adv-x="511" d="M334 7l-9 -58q58 -13 89.5 -57.5t31.5 -115.5q0 -110 -79 -174t-226 -64l-6 167q73 0 73 82q0 40 -25.5 56t-86.5 21l27 143h211z" />
<glyph unicode="&#xbb;" horiz-adv-x="921" d="M261 923l233 -390v-19l-233 -390h-177l193 399l-193 400h177zM609 923l233 -390v-19l-233 -390h-177l193 399l-193 400h177z" />
<glyph unicode="&#xd3;" horiz-adv-x="1236" d="M1142 597q0 -293 -138.5 -455t-384.5 -162q-245 0 -385 160.5t-142 449.5v249q0 300 139 468.5t386 168.5q243 0 383 -165.5t142 -464.5v-249zM847 841q0 197 -56 293t-174 96q-117 0 -173 -92.5t-58 -281.5v-259q0 -191 57 -281.5t176 -90.5q115 0 171 88.5t57 274.5 v253zM675 1846h318l-278 -310h-236z" />
<glyph unicode="&#xf3;" horiz-adv-x="1019" d="M70 576q0 246 116 386t321 140q207 0 323 -140t116 -388v-69q0 -247 -115 -386t-322 -139q-208 0 -323.5 139.5t-115.5 387.5v69zM354 505q0 -290 155 -290q143 0 154 242l1 119q0 148 -41 219.5t-116 71.5q-72 0 -112.5 -71.5t-40.5 -219.5v-71zM562 1536h318l-278 -310 h-236z" />
<glyph unicode="&#x104;" horiz-adv-x="1223" d="M746 1456l458 -1456h-86q-64 -42 -94 -82t-30 -93q0 -65 51 -65q25 0 62 20l27 -158q-65 -44 -146 -44q-91 0 -147 57t-56 152q0 139 103 219l-76 292h-401l-78 -298h-311l455 1456h269zM475 543h272l-136 519z" />
<glyph unicode="&#x105;" horiz-adv-x="964" d="M616 1q-10 22 -23 83q-76 -104 -206 -104q-136 0 -225.5 90t-89.5 233q0 170 108.5 263t312.5 95h86v87q0 73 -25 103t-73 30q-106 0 -106 -124h-283q0 150 112.5 247.5t284.5 97.5q178 0 275.5 -92.5t97.5 -264.5v-509q2 -140 40 -219v-17h-49q-64 -42 -94 -82t-30 -93 q0 -65 51 -65q25 0 62 20l27 -158q-65 -44 -146 -44q-91 0 -147 57t-56 152q0 133 96 214zM450 202q47 0 80 19t49 45v225h-68q-72 0 -113.5 -46t-41.5 -123q0 -120 94 -120z" />
<glyph unicode="&#x106;" horiz-adv-x="1168" d="M1104 485q-11 -249 -140 -377t-364 -128q-247 0 -378.5 162.5t-131.5 463.5v245q0 300 136 462.5t378 162.5q238 0 361.5 -133t140.5 -382h-295q-4 154 -47.5 212.5t-159.5 58.5q-118 0 -167 -82.5t-52 -271.5v-275q0 -217 48.5 -298t166.5 -81q116 0 160 56.5t50 204.5 h294zM657 1854h318l-278 -310h-236z" />
<glyph unicode="&#x107;" horiz-adv-x="942" d="M494 215q123 0 125 160h266q-2 -177 -109 -286t-276 -109q-209 0 -319 130t-112 383v86q0 255 108.5 389t320.5 134q179 0 282 -110.5t105 -313.5h-266q-1 91 -30 140t-96 49q-74 0 -106 -52.5t-34 -203.5v-110q0 -132 13 -184.5t43 -77t85 -24.5zM523 1536h318 l-278 -310h-236z" />
<glyph unicode="&#x118;" horiz-adv-x="1005" d="M869 630h-458v-386h542v-244h-145q-64 -42 -94 -82t-30 -93q0 -65 51 -65q25 0 62 20l27 -158q-65 -44 -146 -44q-91 0 -147 57t-56 152q0 132 95 213h-453v1456h834v-245h-540v-344h458v-237z" />
<glyph unicode="&#x119;" horiz-adv-x="980" d="M906 141q-73 -95 -199 -136q-87 -66 -87 -148q0 -65 51 -65q25 0 62 20l27 -158q-65 -44 -146 -44q-91 0 -147 57t-56 152q0 99 50 166q-186 23 -284.5 151t-98.5 343v89q0 256 112 395t321 139q204 0 307 -130.5t105 -386.5v-139h-563q6 -120 53 -175.5t145 -55.5 q142 0 237 97zM362 644h283v26q-2 97 -32 147t-104 50t-107.5 -53t-39.5 -170z" />
<glyph unicode="&#x141;" horiz-adv-x="1013" d="M446 904l158 53v-166l-158 -53v-494h516v-244h-810v639l-104 -35v166l104 35v651h294v-552z" />
<glyph unicode="&#x142;" horiz-adv-x="587" d="M428 915l109 42v-167l-109 -42v-748h-284v640l-97 -37v167l97 37v729h284v-621z" />
<glyph unicode="&#x143;" horiz-adv-x="1254" d="M1135 0h-294l-430 955v-955h-294v1456h294l431 -956v956h293v-1456zM687 1846h318l-278 -310h-236z" />
<glyph unicode="&#x144;" horiz-adv-x="1008" d="M362 1082l8 -107q96 127 251 127q279 0 287 -391v-711h-284v690q0 92 -27.5 133.5t-96.5 41.5q-77 0 -120 -79v-786h-284v1082h266zM560 1536h318l-278 -310h-236z" />
<glyph unicode="&#x15a;" horiz-adv-x="1106" d="M732 382q0 89 -45.5 134.5t-165.5 94.5q-219 83 -315 194.5t-96 263.5q0 184 130.5 295.5t331.5 111.5q134 0 239 -56.5t161.5 -159.5t56.5 -234h-293q0 102 -43.5 155.5t-125.5 53.5q-77 0 -120 -45.5t-43 -122.5q0 -60 48 -108.5t170 -100.5q213 -77 309.5 -189 t96.5 -285q0 -190 -121 -297t-329 -107q-141 0 -257 58t-181.5 166t-65.5 255h295q0 -126 49 -183t160 -57q154 0 154 163zM624 1846h318l-278 -310h-236z" />
<glyph unicode="&#x15b;" horiz-adv-x="930" d="M582 290q0 36 -34.5 66.5t-153.5 82.5q-175 71 -240.5 147t-65.5 189q0 142 102.5 234.5t271.5 92.5q178 0 285 -92t107 -247h-283q0 132 -110 132q-45 0 -74 -28t-29 -78q0 -36 32 -63.5t151 -78.5q173 -64 244.5 -142.5t71.5 -203.5q0 -145 -109 -233t-286 -88 q-119 0 -210 46.5t-142.5 129.5t-51.5 179h269q2 -74 34.5 -111t106.5 -37q114 0 114 103zM523 1536h318l-278 -310h-236z" />
<glyph unicode="&#x179;" horiz-adv-x="1086" d="M422 244h600v-244h-944v177l594 1034h-600v245h939v-173zM609 1846h318l-278 -310h-236z" />
<glyph unicode="&#x17a;" horiz-adv-x="927" d="M416 235h428v-235h-764v177l418 669h-408v236h748v-171zM517 1536h318l-278 -310h-236z" />
<glyph unicode="&#x17b;" horiz-adv-x="1086" d="M422 244h600v-244h-944v177l594 1034h-600v245h939v-173zM403 1702q0 62 42 100t107 38t107 -38t42 -100q0 -60 -40 -98t-109 -38t-109 38t-40 98z" />
<glyph unicode="&#x17c;" horiz-adv-x="927" d="M416 235h428v-235h-764v177l418 669h-408v236h748v-171zM311 1392q0 62 42 100t107 38t107 -38t42 -100q0 -60 -40 -98t-109 -38t-109 38t-40 98z" />
<glyph unicode="&#x2c6;" horiz-adv-x="929" d="M805 1256v-12h-221l-125 144l-125 -144h-216v16l260 276h162z" />
<glyph unicode="&#x2d9;" horiz-adv-x="544" d="M118 1374q0 62 42 100t107 38t107 -38t42 -100q0 -60 -40 -98t-109 -38t-109 38t-40 98z" />
<glyph unicode="&#x2da;" horiz-adv-x="682" d="M119 1323q0 86 65 145.5t158 59.5q92 0 157.5 -58.5t65.5 -146.5q0 -85 -64 -143t-159 -58q-97 0 -160 59t-63 142zM342 1216q50 0 79 31t29 76q0 46 -29.5 77.5t-78.5 31.5q-47 0 -77 -31t-30 -78t30.5 -77t76.5 -30z" />
<glyph unicode="&#x2dc;" horiz-adv-x="895" d="M774 1524q0 -111 -56.5 -188.5t-142.5 -77.5q-32 0 -56.5 9t-69 37t-63 34t-40.5 6q-27 0 -45 -24.5t-18 -70.5l-160 9q0 111 57 189.5t140 78.5q22 0 42.5 -6.5t71 -35t72.5 -36t44 -7.5q26 0 45.5 24.5t19.5 70.5z" />
<glyph unicode="&#x2000;" horiz-adv-x="927" />
<glyph unicode="&#x2001;" horiz-adv-x="1854" />
<glyph unicode="&#x2002;" horiz-adv-x="927" />
<glyph unicode="&#x2003;" horiz-adv-x="1854" />
<glyph unicode="&#x2004;" horiz-adv-x="618" />
<glyph unicode="&#x2005;" horiz-adv-x="463" />
<glyph unicode="&#x2006;" horiz-adv-x="309" />
<glyph unicode="&#x2007;" horiz-adv-x="309" />
<glyph unicode="&#x2008;" horiz-adv-x="231" />
<glyph unicode="&#x2009;" horiz-adv-x="370" />
<glyph unicode="&#x200a;" horiz-adv-x="103" />
<glyph unicode="&#x2010;" horiz-adv-x="744" d="M612 506h-489v236h489v-236z" />
<glyph unicode="&#x2011;" horiz-adv-x="744" d="M612 506h-489v236h489v-236z" />
<glyph unicode="&#x2012;" horiz-adv-x="744" d="M612 506h-489v236h489v-236z" />
<glyph unicode="&#x2013;" horiz-adv-x="1121" d="M1027.01 594h-876.009v238h876.009v-238z" />
<glyph unicode="&#x2014;" horiz-adv-x="1352" d="M1289.98 594h-1167.98v238h1167.98v-238z" />
<glyph unicode="&#x2018;" horiz-adv-x="469" d="M274 1571l130 -79q-72 -143 -75 -274v-171h-221v155q1 88 43 187q46 107 123 182z" />
<glyph unicode="&#x2019;" horiz-adv-x="460" d="M197 1009l-130 79q71 141 74 274v174h222v-158q-1 -91 -47.5 -196.5t-118.5 -172.5z" />
<glyph unicode="&#x201a;" horiz-adv-x="502" d="M210 -305l-131 79q64 127 67 270v187h231l-1 -167q0 -87 -46 -192t-120 -177z" />
<glyph unicode="&#x201c;" horiz-adv-x="793" d="M283 1571l130 -79q-72 -143 -75 -274v-171h-221v155q1 88 43 187q46 107 123 182zM597 1571l130 -79q-72 -143 -75 -274v-171h-221v155q1 88 43 187q46 107 123 182z" />
<glyph unicode="&#x201d;" horiz-adv-x="800" d="M211 1009l-130 79q71 141 74 274v174h222v-158q-1 -91 -47.5 -196.5t-118.5 -172.5zM530 1009l-130 79q71 141 74 274v174h222v-158q-1 -91 -47.5 -196.5t-118.5 -172.5z" />
<glyph unicode="&#x201e;" horiz-adv-x="790" d="M218 -325l-139 79q64 134 67 289v220h231l-1 -201q-1 -102 -46 -210t-112 -177zM527 -325l-138 79q71 148 74 291v218h230l-1 -200q-1 -110 -58 -231q-46 -96 -107 -157z" />
<glyph unicode="&#x2026;" horiz-adv-x="1358" d="M128 144q0 68 45.5 112t118.5 44q71 0 118 -43.5t47 -112.5q0 -70 -47.5 -112.5t-117.5 -42.5q-71 0 -117.5 43t-46.5 112zM539 144q0 68 45.5 112t118.5 44q71 0 118 -43.5t47 -112.5q0 -70 -47.5 -112.5t-117.5 -42.5q-71 0 -117.5 43t-46.5 112zM945 144 q0 68 45.5 112t118.5 44q71 0 118 -43.5t47 -112.5q0 -70 -47.5 -112.5t-117.5 -42.5q-71 0 -117.5 43t-46.5 112z" />
<glyph unicode="&#x202f;" horiz-adv-x="370" />
<glyph unicode="&#x2039;" horiz-adv-x="582" d="M327 523l192 -399h-175l-233 390v19l233 390h175z" />
<glyph unicode="&#x203a;" horiz-adv-x="562" d="M260 923l233 -390v-19l-233 -390h-177l193 399l-193 400h177z" />
<glyph unicode="&#x205f;" horiz-adv-x="463" />
<glyph unicode="&#x20ac;" d="M789 515h-260q4 -148 59.5 -220t168.5 -72q87 0 155 31l36 -244q-108 -29 -221 -29q-224 0 -355.5 141.5t-137.5 392.5h-137v153h137v124h-137v152h138q15 252 151.5 391.5t360.5 139.5q90 0 201 -31l-36 -245q-73 32 -149 32q-103 0 -163 -67.5t-69 -219.5h258v-152 h-260v-124h260v-153z" />
<glyph unicode="&#x2122;" horiz-adv-x="1134" d="M873 1265l-84 -351h-65l-84 352v-352h-120v542h148l89 -367l97 367h139v-542h-120v351zM463 1348h-101v-431h-135v431h-108v108h344v-108z" />
<glyph unicode="&#x2212;" horiz-adv-x="990" d="M870 594h-730v238h730v-238z" />
<glyph unicode="&#x25fc;" horiz-adv-x="1080" d="M0 1080h1080v-1080h-1080v1080z" />
<hkern u1="&#x20;" u2="T" k="60" />
<hkern u1="&#x22;" u2="w" k="-11" />
<hkern u1="&#x27;" u2="w" k="-11" />
<hkern u1="&#x28;" u2="Y" k="-22" />
<hkern u1="&#x28;" u2="W" k="-38" />
<hkern u1="&#x28;" u2="V" k="-20" />
<hkern u1="&#x2f;" u2="&#x2f;" k="248" />
<hkern u1="A" u2="w" k="33" />
<hkern u1="A" u2="t" k="17" />
<hkern u1="A" u2="&#x3f;" k="81" />
<hkern u1="C" u2="&#x7d;" k="17" />
<hkern u1="C" u2="]" k="12" />
<hkern u1="C" u2="&#x29;" k="26" />
<hkern u1="E" u2="w" k="22" />
<hkern u1="E" u2="f" k="18" />
<hkern u1="F" u2="&#x2026;" k="274" />
<hkern u1="F" u2="&#x201e;" k="274" />
<hkern u1="F" u2="&#x201a;" k="274" />
<hkern u1="F" u2="&#x119;" k="21" />
<hkern u1="F" u2="&#x107;" k="21" />
<hkern u1="F" u2="&#x105;" k="34" />
<hkern u1="F" u2="&#x104;" k="192" />
<hkern u1="F" u2="&#xf3;" k="21" />
<hkern u1="F" u2="y" k="24" />
<hkern u1="F" u2="v" k="24" />
<hkern u1="F" u2="u" k="22" />
<hkern u1="F" u2="r" k="26" />
<hkern u1="F" u2="q" k="21" />
<hkern u1="F" u2="o" k="21" />
<hkern u1="F" u2="g" k="21" />
<hkern u1="F" u2="e" k="21" />
<hkern u1="F" u2="d" k="21" />
<hkern u1="F" u2="c" k="21" />
<hkern u1="F" u2="a" k="34" />
<hkern u1="F" u2="T" k="-20" />
<hkern u1="F" u2="J" k="208" />
<hkern u1="F" u2="A" k="192" />
<hkern u1="F" u2="&#x2e;" k="274" />
<hkern u1="F" u2="&#x2c;" k="274" />
<hkern u1="K" u2="w" k="63" />
<hkern u1="L" u2="w" k="52" />
<hkern u1="P" u2="t" k="-14" />
<hkern u1="Q" u2="Y" k="35" />
<hkern u1="Q" u2="W" k="20" />
<hkern u1="Q" u2="V" k="28" />
<hkern u1="Q" u2="T" k="33" />
<hkern u1="R" u2="Y" k="48" />
<hkern u1="R" u2="V" k="19" />
<hkern u1="R" u2="T" k="50" />
<hkern u1="T" u2="&#xbb;" k="146" />
<hkern u1="T" u2="&#xab;" k="148" />
<hkern u1="T" u2="w" k="47" />
<hkern u1="T" u2="r" k="65" />
<hkern u1="T" u2="&#x20;" k="60" />
<hkern u1="V" u2="&#x7d;" k="-19" />
<hkern u1="V" u2="r" k="30" />
<hkern u1="V" u2="]" k="-17" />
<hkern u1="V" u2="&#x29;" k="-20" />
<hkern u1="W" u2="&#x7d;" k="-14" />
<hkern u1="W" u2="r" k="21" />
<hkern u1="W" u2="]" k="-12" />
<hkern u1="W" u2="&#x29;" k="-15" />
<hkern u1="Y" u2="&#xbb;" k="51" />
<hkern u1="Y" u2="&#xab;" k="82" />
<hkern u1="Y" u2="&#x7d;" k="-19" />
<hkern u1="Y" u2="t" k="22" />
<hkern u1="Y" u2="r" k="40" />
<hkern u1="Y" u2="f" k="22" />
<hkern u1="Y" u2="]" k="-18" />
<hkern u1="Y" u2="&#x2a;" k="49" />
<hkern u1="Y" u2="&#x29;" k="-20" />
<hkern u1="Y" u2="&#x26;" k="30" />
<hkern u1="Z" u2="w" k="27" />
<hkern u1="[" u2="U" k="18" />
<hkern u1="[" u2="J" k="18" />
<hkern u1="e" u2="&#x2019;" k="64" />
<hkern u1="f" u2="&#x201d;" k="-16" />
<hkern u1="f" u2="&#x201c;" k="-16" />
<hkern u1="f" u2="&#x2019;" k="-16" />
<hkern u1="f" u2="&#x2018;" k="-16" />
<hkern u1="f" u2="&#x119;" k="24" />
<hkern u1="f" u2="&#x107;" k="24" />
<hkern u1="f" u2="&#x7d;" k="-19" />
<hkern u1="f" u2="q" k="24" />
<hkern u1="f" u2="g" k="24" />
<hkern u1="f" u2="e" k="24" />
<hkern u1="f" u2="d" k="24" />
<hkern u1="f" u2="c" k="24" />
<hkern u1="f" u2="]" k="-18" />
<hkern u1="f" u2="&#x29;" k="-20" />
<hkern u1="f" u2="&#x27;" k="-16" />
<hkern u1="f" u2="&#x22;" k="-16" />
<hkern u1="h" u2="&#x2019;" k="104" />
<hkern u1="k" u2="&#x119;" k="20" />
<hkern u1="k" u2="&#x107;" k="20" />
<hkern u1="k" u2="q" k="20" />
<hkern u1="k" u2="g" k="20" />
<hkern u1="k" u2="e" k="20" />
<hkern u1="k" u2="d" k="20" />
<hkern u1="k" u2="c" k="20" />
<hkern u1="m" u2="&#x2019;" k="120" />
<hkern u1="n" u2="&#x2019;" k="120" />
<hkern u1="o" u2="&#x2019;" k="112" />
<hkern u1="r" u2="&#x2019;" k="-16" />
<hkern u1="r" u2="w" k="-17" />
<hkern u1="r" u2="t" k="-50" />
<hkern u1="r" u2="f" k="-20" />
<hkern u1="t" u2="&#x2019;" k="-24" />
<hkern u1="t" u2="&#xf3;" k="30" />
<hkern u1="t" u2="o" k="30" />
<hkern u1="v" u2="f" k="-13" />
<hkern u1="w" u2="&#x2026;" k="124" />
<hkern u1="w" u2="&#x201e;" k="124" />
<hkern u1="w" u2="&#x201a;" k="124" />
<hkern u1="w" u2="&#x2e;" k="124" />
<hkern u1="w" u2="&#x2c;" k="124" />
<hkern u1="y" u2="f" k="-13" />
<hkern u1="&#x7b;" u2="U" k="20" />
<hkern u1="&#x7b;" u2="J" k="20" />
<hkern u1="&#xf3;" u2="&#x2019;" k="112" />
<hkern u1="&#x104;" u2="w" k="33" />
<hkern u1="&#x104;" u2="t" k="17" />
<hkern u1="&#x104;" u2="&#x3f;" k="81" />
<hkern u1="&#x106;" u2="&#x7d;" k="17" />
<hkern u1="&#x106;" u2="]" k="12" />
<hkern u1="&#x106;" u2="&#x29;" k="26" />
<hkern u1="&#x118;" u2="w" k="22" />
<hkern u1="&#x118;" u2="f" k="18" />
<hkern u1="&#x119;" u2="&#x2019;" k="64" />
<hkern u1="&#x144;" u2="&#x2019;" k="120" />
<hkern u1="&#x179;" u2="w" k="27" />
<hkern u1="&#x17b;" u2="w" k="27" />
<hkern u1="&#x2018;" u2="w" k="-11" />
<hkern u1="&#x2019;" u2="&#x15b;" k="232" />
<hkern u1="&#x2019;" u2="&#x119;" k="104" />
<hkern u1="&#x2019;" u2="&#x107;" k="104" />
<hkern u1="&#x2019;" u2="&#xf3;" k="144" />
<hkern u1="&#x2019;" u2="w" k="-11" />
<hkern u1="&#x2019;" u2="s" k="232" />
<hkern u1="&#x2019;" u2="q" k="104" />
<hkern u1="&#x2019;" u2="o" k="144" />
<hkern u1="&#x2019;" u2="g" k="104" />
<hkern u1="&#x2019;" u2="e" k="104" />
<hkern u1="&#x2019;" u2="d" k="104" />
<hkern u1="&#x2019;" u2="c" k="104" />
<hkern u1="&#x201c;" u2="w" k="-11" />
<hkern u1="&#x201d;" u2="w" k="-11" />
<hkern g1="H,I,M,N,Nacute" 	g2="A,Aogonek" 	k="-18" />
<hkern g1="H,I,M,N,Nacute" 	g2="T" 	k="29" />
<hkern g1="H,I,M,N,Nacute" 	g2="Y" 	k="28" />
<hkern g1="H,I,M,N,Nacute" 	g2="X" 	k="-17" />
<hkern g1="D,O,Oacute" 	g2="A,Aogonek" 	k="21" />
<hkern g1="D,O,Oacute" 	g2="T" 	k="85" />
<hkern g1="D,O,Oacute" 	g2="Y" 	k="43" />
<hkern g1="D,O,Oacute" 	g2="X" 	k="22" />
<hkern g1="D,O,Oacute" 	g2="Z,Zacute,Zdotaccent" 	k="23" />
<hkern g1="D,O,Oacute" 	g2="comma,period,quotesinglbase,quotedblbase,ellipsis" 	k="122" />
<hkern g1="D,O,Oacute" 	g2="V" 	k="22" />
<hkern g1="A,Aogonek" 	g2="C,G,O,Q,Oacute,Cacute" 	k="21" />
<hkern g1="A,Aogonek" 	g2="m,n,p,nacute" 	k="48" />
<hkern g1="A,Aogonek" 	g2="o,oacute" 	k="12" />
<hkern g1="A,Aogonek" 	g2="u" 	k="11" />
<hkern g1="A,Aogonek" 	g2="v,y" 	k="50" />
<hkern g1="A,Aogonek" 	g2="U" 	k="17" />
<hkern g1="A,Aogonek" 	g2="T" 	k="120" />
<hkern g1="A,Aogonek" 	g2="Y" 	k="150" />
<hkern g1="A,Aogonek" 	g2="z,zacute,zdotaccent" 	k="-12" />
<hkern g1="A,Aogonek" 	g2="quotedbl,quotesingle,quoteleft,quoteright,quotedblleft,quotedblright" 	k="120" />
<hkern g1="A,Aogonek" 	g2="W" 	k="39" />
<hkern g1="A,Aogonek" 	g2="V" 	k="77" />
<hkern g1="o,oacute" 	g2="v,y" 	k="15" />
<hkern g1="o,oacute" 	g2="z,zacute,zdotaccent" 	k="16" />
<hkern g1="o,oacute" 	g2="quotedbl,quotesingle,quoteleft,quoteright,quotedblleft,quotedblright" 	k="88" />
<hkern g1="o,oacute" 	g2="x" 	k="21" />
<hkern g1="h,m,n,nacute" 	g2="quotedbl,quotesingle,quoteleft,quoteright,quotedblleft,quotedblright" 	k="80" />
<hkern g1="E,Eogonek" 	g2="c,d,e,g,q,cacute,eogonek" 	k="19" />
<hkern g1="E,Eogonek" 	g2="o,oacute" 	k="19" />
<hkern g1="E,Eogonek" 	g2="u" 	k="17" />
<hkern g1="E,Eogonek" 	g2="v,y" 	k="26" />
<hkern g1="E,Eogonek" 	g2="T" 	k="-20" />
<hkern g1="a,aogonek" 	g2="v,y" 	k="15" />
<hkern g1="a,aogonek" 	g2="quotedbl,quotesingle,quoteleft,quoteright,quotedblleft,quotedblright" 	k="17" />
<hkern g1="b,p" 	g2="v,y" 	k="11" />
<hkern g1="b,p" 	g2="z,zacute,zdotaccent" 	k="15" />
<hkern g1="b,p" 	g2="quotedbl,quotesingle,quoteleft,quoteright,quotedblleft,quotedblright" 	k="29" />
<hkern g1="b,p" 	g2="x" 	k="15" />
<hkern g1="e,eogonek" 	g2="v,y" 	k="13" />
<hkern g1="e,eogonek" 	g2="quotedbl,quotesingle,quoteleft,quoteright,quotedblleft,quotedblright" 	k="14" />
<hkern g1="v,y" 	g2="c,d,e,g,q,cacute,eogonek" 	k="13" />
<hkern g1="v,y" 	g2="o,oacute" 	k="15" />
<hkern g1="v,y" 	g2="a,aogonek" 	k="15" />
<hkern g1="v,y" 	g2="quotedbl,quotesingle,quoteleft,quoteright,quotedblleft,quotedblright" 	k="-15" />
<hkern g1="v,y" 	g2="comma,period,quotesinglbase,quotedblbase,ellipsis" 	k="167" />
<hkern g1="J,U" 	g2="A,Aogonek" 	k="22" />
<hkern g1="K" 	g2="c,d,e,g,q,cacute,eogonek" 	k="26" />
<hkern g1="K" 	g2="C,G,O,Q,Oacute,Cacute" 	k="31" />
<hkern g1="K" 	g2="o,oacute" 	k="27" />
<hkern g1="K" 	g2="u" 	k="23" />
<hkern g1="K" 	g2="v,y" 	k="40" />
<hkern g1="K" 	g2="hyphen,endash,emdash" 	k="164" />
<hkern g1="Y" 	g2="c,d,e,g,q,cacute,eogonek" 	k="65" />
<hkern g1="Y" 	g2="C,G,O,Q,Oacute,Cacute" 	k="29" />
<hkern g1="Y" 	g2="m,n,p,nacute" 	k="40" />
<hkern g1="Y" 	g2="o,oacute" 	k="65" />
<hkern g1="Y" 	g2="u" 	k="39" />
<hkern g1="Y" 	g2="A,Aogonek" 	k="150" />
<hkern g1="Y" 	g2="a,aogonek" 	k="63" />
<hkern g1="Y" 	g2="v,y" 	k="20" />
<hkern g1="Y" 	g2="U" 	k="96" />
<hkern g1="Y" 	g2="T" 	k="-17" />
<hkern g1="Y" 	g2="Y" 	k="-18" />
<hkern g1="Y" 	g2="s,sacute" 	k="58" />
<hkern g1="Y" 	g2="z,zacute,zdotaccent" 	k="30" />
<hkern g1="Y" 	g2="S,Sacute" 	k="16" />
<hkern g1="Y" 	g2="X" 	k="-13" />
<hkern g1="Y" 	g2="x" 	k="23" />
<hkern g1="Y" 	g2="W" 	k="-17" />
<hkern g1="Y" 	g2="comma,period,quotesinglbase,quotedblbase,ellipsis" 	k="231" />
<hkern g1="Y" 	g2="V" 	k="-18" />
<hkern g1="Y" 	g2="hyphen,endash,emdash" 	k="152" />
<hkern g1="Y" 	g2="J" 	k="96" />
<hkern g1="T" 	g2="c,d,e,g,q,cacute,eogonek" 	k="89" />
<hkern g1="T" 	g2="C,G,O,Q,Oacute,Cacute" 	k="28" />
<hkern g1="T" 	g2="m,n,p,nacute" 	k="89" />
<hkern g1="T" 	g2="o,oacute" 	k="208" />
<hkern g1="T" 	g2="u" 	k="65" />
<hkern g1="T" 	g2="A,Aogonek" 	k="120" />
<hkern g1="T" 	g2="a,aogonek" 	k="168" />
<hkern g1="T" 	g2="v,y" 	k="82" />
<hkern g1="T" 	g2="T" 	k="-16" />
<hkern g1="T" 	g2="Y" 	k="-16" />
<hkern g1="T" 	g2="s,sacute" 	k="76" />
<hkern g1="T" 	g2="z,zacute,zdotaccent" 	k="60" />
<hkern g1="T" 	g2="S,Sacute" 	k="16" />
<hkern g1="T" 	g2="x" 	k="77" />
<hkern g1="T" 	g2="W" 	k="-15" />
<hkern g1="T" 	g2="comma,period,quotesinglbase,quotedblbase,ellipsis" 	k="258" />
<hkern g1="T" 	g2="V" 	k="-16" />
<hkern g1="T" 	g2="hyphen,endash,emdash" 	k="272" />
<hkern g1="T" 	g2="J" 	k="216" />
<hkern g1="z,zacute,zdotaccent" 	g2="c,d,e,g,q,cacute,eogonek" 	k="16" />
<hkern g1="z,zacute,zdotaccent" 	g2="o,oacute" 	k="16" />
<hkern g1="Z,Zacute,Zdotaccent" 	g2="c,d,e,g,q,cacute,eogonek" 	k="21" />
<hkern g1="Z,Zacute,Zdotaccent" 	g2="C,G,O,Q,Oacute,Cacute" 	k="26" />
<hkern g1="Z,Zacute,Zdotaccent" 	g2="o,oacute" 	k="21" />
<hkern g1="Z,Zacute,Zdotaccent" 	g2="u" 	k="19" />
<hkern g1="Z,Zacute,Zdotaccent" 	g2="A,Aogonek" 	k="-13" />
<hkern g1="Z,Zacute,Zdotaccent" 	g2="v,y" 	k="27" />
<hkern g1="X" 	g2="c,d,e,g,q,cacute,eogonek" 	k="26" />
<hkern g1="X" 	g2="C,G,O,Q,Oacute,Cacute" 	k="25" />
<hkern g1="X" 	g2="o,oacute" 	k="21" />
<hkern g1="X" 	g2="u" 	k="21" />
<hkern g1="X" 	g2="v,y" 	k="31" />
<hkern g1="X" 	g2="V" 	k="-14" />
<hkern g1="X" 	g2="hyphen,endash,emdash" 	k="156" />
<hkern g1="C,Cacute" 	g2="T" 	k="29" />
<hkern g1="x" 	g2="c,d,e,g,q,cacute,eogonek" 	k="20" />
<hkern g1="x" 	g2="o,oacute" 	k="40" />
<hkern g1="r" 	g2="c,d,e,g,q,cacute,eogonek" 	k="19" />
<hkern g1="r" 	g2="o,oacute" 	k="36" />
<hkern g1="r" 	g2="a,aogonek" 	k="30" />
<hkern g1="r" 	g2="v,y" 	k="-18" />
<hkern g1="r" 	g2="quotedbl,quotesingle,quoteleft,quoteright,quotedblleft,quotedblright" 	k="-16" />
<hkern g1="r" 	g2="comma,period,quotesinglbase,quotedblbase,ellipsis" 	k="173" />
<hkern g1="P" 	g2="c,d,e,g,q,cacute,eogonek" 	k="13" />
<hkern g1="P" 	g2="o,oacute" 	k="13" />
<hkern g1="P" 	g2="A,Aogonek" 	k="178" />
<hkern g1="P" 	g2="a,aogonek" 	k="11" />
<hkern g1="P" 	g2="v,y" 	k="-15" />
<hkern g1="P" 	g2="X" 	k="51" />
<hkern g1="P" 	g2="Z,Zacute,Zdotaccent" 	k="36" />
<hkern g1="P" 	g2="comma,period,quotesinglbase,quotedblbase,ellipsis" 	k="404" />
<hkern g1="P" 	g2="J" 	k="184" />
<hkern g1="c,cacute" 	g2="quotedbl,quotesingle,quoteleft,quoteright,quotedblleft,quotedblright" 	k="11" />
<hkern g1="L" 	g2="C,G,O,Q,Oacute,Cacute" 	k="64" />
<hkern g1="L" 	g2="u" 	k="14" />
<hkern g1="L" 	g2="A,Aogonek" 	k="-19" />
<hkern g1="L" 	g2="v,y" 	k="123" />
<hkern g1="L" 	g2="U" 	k="24" />
<hkern g1="L" 	g2="T" 	k="205" />
<hkern g1="L" 	g2="Y" 	k="279" />
<hkern g1="L" 	g2="quotedbl,quotesingle,quoteleft,quoteright,quotedblleft,quotedblright" 	k="288" />
<hkern g1="L" 	g2="W" 	k="93" />
<hkern g1="L" 	g2="V" 	k="206" />
<hkern g1="quotedbl,quotesingle,quoteleft,quoteright,quotedblleft,quotedblright" 	g2="c,d,e,g,q,cacute,eogonek" 	k="59" />
<hkern g1="quotedbl,quotesingle,quoteleft,quoteright,quotedblleft,quotedblright" 	g2="m,n,p,nacute" 	k="20" />
<hkern g1="quotedbl,quotesingle,quoteleft,quoteright,quotedblleft,quotedblright" 	g2="o,oacute" 	k="91" />
<hkern g1="quotedbl,quotesingle,quoteleft,quoteright,quotedblleft,quotedblright" 	g2="A,Aogonek" 	k="120" />
<hkern g1="quotedbl,quotesingle,quoteleft,quoteright,quotedblleft,quotedblright" 	g2="a,aogonek" 	k="50" />
<hkern g1="quotedbl,quotesingle,quoteleft,quoteright,quotedblleft,quotedblright" 	g2="s,sacute" 	k="92" />
<hkern g1="quotedbl,quotesingle,quoteleft,quoteright,quotedblleft,quotedblright" 	g2="quotedbl,quotesingle,quoteleft,quoteright,quotedblleft,quotedblright" 	k="37" />
<hkern g1="W" 	g2="c,d,e,g,q,cacute,eogonek" 	k="31" />
<hkern g1="W" 	g2="o,oacute" 	k="31" />
<hkern g1="W" 	g2="u" 	k="19" />
<hkern g1="W" 	g2="A,Aogonek" 	k="43" />
<hkern g1="W" 	g2="a,aogonek" 	k="33" />
<hkern g1="W" 	g2="T" 	k="-14" />
<hkern g1="W" 	g2="comma,period,quotesinglbase,quotedblbase,ellipsis" 	k="143" />
<hkern g1="W" 	g2="hyphen,endash,emdash" 	k="60" />
<hkern g1="B" 	g2="T" 	k="27" />
<hkern g1="B" 	g2="Y" 	k="55" />
<hkern g1="B" 	g2="V" 	k="24" />
<hkern g1="V" 	g2="c,d,e,g,q,cacute,eogonek" 	k="44" />
<hkern g1="V" 	g2="C,G,O,Q,Oacute,Cacute" 	k="13" />
<hkern g1="V" 	g2="o,oacute" 	k="46" />
<hkern g1="V" 	g2="u" 	k="28" />
<hkern g1="V" 	g2="A,Aogonek" 	k="75" />
<hkern g1="V" 	g2="a,aogonek" 	k="46" />
<hkern g1="V" 	g2="v,y" 	k="11" />
<hkern g1="V" 	g2="comma,period,quotesinglbase,quotedblbase,ellipsis" 	k="215" />
<hkern g1="V" 	g2="hyphen,endash,emdash" 	k="157" />
<hkern g1="comma,period,quotesinglbase,quotedblbase,ellipsis" 	g2="quotedbl,quotesingle,quoteleft,quoteright,quotedblleft,quotedblright" 	k="285" />
</font>
</defs></svg> 